[
    {
        "username": "jafarali",
        "email": "mohammad@gmail.com",
        "password": "45657"
    },
    {
        "username": "mohammadreza",
        "email": "mohammadreza@yahoo.com",
        "password": "5678909"
    },
    {
        "username": "kasrafarokhinia",
        "email": "mohammad@gmail.com",
        "password": "2345"
    },
    {
        "username": "kasrafarokhinia",
        "email": "kasrafarokhinia@gmail.com",
        "password": "101010"
    }
]